﻿[
  {
    "userName": "Adam",
    "fullName": "Adam Gandalf",
    "profilePicture": "http://lorempixel.com/100/100/people/3",
    "numberOfPosts": 10
  },
  {
    "userName": "Joky",
    "fullName": "Jozef Gringo",
    "profilePicture": "http://lorempixel.com/100/100/people/9",
    "numberOfPosts": 20
  },
  {
    "userName": "Feri",
    "fullName": "Frantisek Vsedny",
    "profilePicture": "http://lorempixel.com/100/100/people/7",
    "numberOfPosts": 6
  }
]

